<?xml version="1.0" encoding="utf-8"?>
<!-- Generator: Adobe Illustrator 16.0.0, SVG Export Plug-In . SVG Version: 6.00 Build 0)  -->
<!DOCTYPE svg PUBLIC "-//W3C//DTD SVG 1.1//EN" "http://www.w3.org/Graphics/SVG/1.1/DTD/svg11.dtd">
<svg version="1.1" id="Layer_1" xmlns="http://www.w3.org/2000/svg" xmlns:xlink="http://www.w3.org/1999/xlink" x="0px" y="0px"
	 width="340.634px" height="85.916px" viewBox="0 0 340.634 85.916" enable-background="new 0 0 340.634 85.916"
	 xml:space="preserve">
<g>
	<linearGradient id="SVGID_1_" gradientUnits="userSpaceOnUse" x1="32.8857" y1="53.877" x2="32.8857" y2="0">
		<stop  offset="0" style="stop-color:#D4D0B1"/>
		<stop  offset="1" style="stop-color:#E2BE6F"/>
	</linearGradient>
	<path fill="url(#SVGID_1_)" d="M30.791,46.787c-1.036-0.293-1.553-0.869-1.553-1.729l0.82-31.846h-0.41L15.615,42.422
		c-0.84,1.504-2.032,3.116-3.574,4.834s-3.32,3.252-5.332,4.6c-2.011,1.348-3.789,2.021-5.332,2.021C0.459,53.877,0,52.539,0,49.863
		c0-1.191,0.879-2.139,2.637-2.842c2.07-0.801,3.779-1.504,5.127-2.109c2.656-1.191,4.57-2.822,5.742-4.893
		c1.582-3.417,4.37-9.306,8.364-17.666c3.994-8.359,6.665-13.975,8.013-16.846c0.801-1.465,1.978-2.661,3.53-3.589
		c1.553-0.927,3.179-1.392,4.878-1.392c0,0.02,0.117,0.088,0.352,0.205c-0.684,5.196-1.197,11.226-1.538,18.091
		c-0.342,6.866-0.571,11.275-0.688,13.228h0.439c0.352-0.762,0.918-1.875,1.699-3.34c3.398-6.484,7.51-14.619,12.334-24.404
		L50.83,4.365c0.527-0.859,1.812-1.792,3.853-2.798C56.723,0.562,58.301,0.04,59.414,0l0.234,0.117
		c-2.676,13.887-4.385,23.306-5.127,28.257c-0.743,4.951-1.113,8.481-1.113,10.591s0.458,3.164,1.377,3.164
		c1.406,0,5.068-2.9,10.986-8.701v3.34c-7.617,7.402-12.979,11.104-16.084,11.104c-2.208,0-3.311-2.041-3.311-6.123
		c0-2.969,0.293-6.23,0.879-9.785c0.839-5.058,1.533-9.111,2.08-12.158c0.546-3.047,0.971-5.283,1.274-6.709
		c0.303-1.425,0.454-2.266,0.454-2.52c0-0.253-0.117-0.381-0.352-0.381s-0.391,0.117-0.469,0.352
		C38.232,34.2,31.748,46.279,30.791,46.787z"/>
	<linearGradient id="SVGID_2_" gradientUnits="userSpaceOnUse" x1="79.0869" y1="53.877" x2="79.0869" y2="3.814697e-006">
		<stop  offset="0" style="stop-color:#D4D0B1"/>
		<stop  offset="1" style="stop-color:#E2BE6F"/>
	</linearGradient>
	<path fill="url(#SVGID_2_)" d="M66.738,47.109c-2.285,0-3.428-1.641-3.428-4.922c0-1.113,0.136-2.197,0.41-3.252
		c1.172-4.434,2.793-9.628,4.863-15.586c0.078-0.488,1.66-0.732,4.746-0.732h1.025c0,0.04-0.4,1.318-1.201,3.838
		c-2.402,7.559-3.604,12.041-3.604,13.447s0.654,2.109,1.963,2.109c1.113,0,2.495-0.479,4.146-1.436
		c1.65-0.957,2.612-1.718,2.886-2.285l3.193-12.188c0.429-1.66,1.015-2.676,1.758-3.047c0.566-0.293,1.475-0.439,2.725-0.439h1.992
		c-2.48,8.965-3.945,14.443-4.395,16.436c-0.157,1.484-0.234,2.373-0.234,2.666s0.044,0.494,0.132,0.601
		c0.088,0.107,0.288,0.161,0.601,0.161c0.996,0,4.512-3.018,10.547-9.053v3.281c-0.469,0.43-1.279,1.187-2.432,2.271
		c-1.153,1.084-2.032,1.904-2.637,2.461c-0.605,0.557-1.421,1.255-2.446,2.095c-1.025,0.84-1.88,1.475-2.563,1.904
		c-1.777,1.113-3.233,1.67-4.365,1.67c-1.68,0-2.52-1.279-2.52-3.838c0-1.074,0.098-1.982,0.293-2.725
		C73.682,44.922,69.863,47.109,66.738,47.109z"/>
	<linearGradient id="SVGID_3_" gradientUnits="userSpaceOnUse" x1="100.3857" y1="53.877" x2="100.3857" y2="0">
		<stop  offset="0" style="stop-color:#D4D0B1"/>
		<stop  offset="1" style="stop-color:#E2BE6F"/>
	</linearGradient>
	<path fill="url(#SVGID_3_)" d="M98.086,40.43c0,1.289,0.341,1.934,1.025,1.934c0.429,0,1.782-1.118,4.058-3.354
		c2.275-2.236,4.087-4.097,5.435-5.581v3.281c-3.848,3.79-6.426,6.23-7.734,7.324c-2.383,1.973-4.424,2.998-6.123,3.076
		c-0.86,0-1.504-0.386-1.934-1.157c-0.43-0.771-0.645-1.762-0.645-2.974c0-1.211,0.546-4.053,1.641-8.525
		c1.094-4.472,1.821-7.178,2.183-8.115c0.361-0.938,0.659-1.592,0.894-1.963c0.234-0.371,0.527-0.664,0.879-0.879
		c0.352-0.215,0.659-0.385,0.923-0.513c0.264-0.127,0.669-0.22,1.216-0.278c0.762-0.059,1.699-0.088,2.813-0.088
		C99.628,32.5,98.086,38.438,98.086,40.43z M103.125,14.824c-1.387,0-2.08-0.703-2.08-2.109c0-0.977,0.366-1.919,1.099-2.827
		s1.597-1.362,2.593-1.362s1.738,0.195,2.227,0.586c0.488,0.391,0.732,0.981,0.732,1.772s-0.464,1.646-1.392,2.563
		C105.376,14.366,104.316,14.824,103.125,14.824z"/>
	<linearGradient id="SVGID_4_" gradientUnits="userSpaceOnUse" x1="115.1074" y1="53.877" x2="115.1074" y2="0">
		<stop  offset="0" style="stop-color:#D4D0B1"/>
		<stop  offset="1" style="stop-color:#E2BE6F"/>
	</linearGradient>
	<path fill="url(#SVGID_4_)" d="M115.02,46.04c-0.664,0.283-1.392,0.532-2.183,0.747c-0.791,0.215-1.582,0.322-2.373,0.322
		s-1.622-0.078-2.49-0.234c-0.869-0.157-1.724-0.41-2.563-0.762c-1.914-0.781-2.871-2.128-2.871-4.043
		c0-0.762,0.283-1.63,0.85-2.607c0.567-0.977,1.187-1.835,1.86-2.578c0.674-0.742,1.469-1.592,2.388-2.549
		c0.918-0.957,1.542-1.641,1.875-2.051c-0.527-1.308-0.791-2.734-0.791-4.277c0-2.285,0.703-4.175,2.109-5.669
		s3.505-2.241,6.299-2.241c1.23,0,1.846,0.342,1.846,1.025c0,1.211-0.523,2.153-1.567,2.827c-1.045,0.674-2.164,1.011-3.354,1.011
		c0.664,2.012,1.787,3.819,3.369,5.42c0.586,0.625,1.152,1.221,1.699,1.787c1.27,1.289,1.904,2.402,1.904,3.34
		c0,1.446-0.684,3.105-2.051,4.98l8.701-7.119v3.223c-0.234,0.195-0.816,0.703-1.743,1.523c-0.928,0.82-1.602,1.411-2.021,1.772
		c-0.42,0.362-1.104,0.923-2.051,1.685c-0.948,0.762-1.709,1.343-2.285,1.743c-0.576,0.4-1.314,0.884-2.212,1.45
		C116.465,45.333,115.683,45.757,115.02,46.04z M110.771,34.57c-0.157,0.176-0.752,0.732-1.787,1.67
		c-2.305,2.051-3.457,3.628-3.457,4.731c0,1.104,0.566,2.032,1.699,2.783c1.132,0.752,2.354,1.128,3.662,1.128
		c1.308,0,2.363-0.22,3.164-0.659c0.801-0.439,1.201-1,1.201-1.685c0-0.684-0.088-1.299-0.264-1.846
		c-0.176-0.546-0.454-1.118-0.835-1.714c-0.381-0.596-0.713-1.084-0.996-1.465c-0.283-0.381-0.708-0.908-1.274-1.582
		C111.318,35.259,110.947,34.805,110.771,34.57z"/>
	<linearGradient id="SVGID_5_" gradientUnits="userSpaceOnUse" x1="134.5752" y1="53.877" x2="134.5752" y2="0">
		<stop  offset="0" style="stop-color:#D4D0B1"/>
		<stop  offset="1" style="stop-color:#E2BE6F"/>
	</linearGradient>
	<path fill="url(#SVGID_5_)" d="M128.525,24.727c-0.274,0-0.503,0-0.688,0c-0.186,0-0.366-0.004-0.542-0.015
		c-0.176-0.01-0.313-0.024-0.41-0.044c-0.098-0.019-0.21-0.048-0.337-0.088c-0.127-0.039-0.23-0.088-0.308-0.146
		c-0.078-0.059-0.157-0.127-0.234-0.205c-0.137-0.156-0.205-0.366-0.205-0.63s0.01-0.435,0.029-0.513
		c0.078-0.195,0.429-0.332,1.055-0.41l2.461-0.234c0.918-3.047,1.563-4.985,1.934-5.815c0.371-0.83,0.728-1.577,1.069-2.241
		c0.341-0.664,0.674-1.182,0.996-1.553c0.322-0.371,0.698-0.771,1.128-1.201c0.429-0.429,0.879-0.751,1.348-0.967
		c1.113-0.508,2.256-0.762,3.428-0.762l0.117,0.117c0,0.078-0.254,0.84-0.762,2.285c-1.68,4.805-2.803,8.184-3.369,10.137
		l8.936-0.41l-0.645,1.055c-0.488,0.898-3.409,1.348-8.76,1.348c-0.02,0-0.322,1.084-0.908,3.252
		c-1.758,6.465-2.637,10.381-2.637,11.748c0,1.387,0.156,2.183,0.469,2.388c0.312,0.205,0.634,0.308,0.967,0.308
		c1.055,0,4.775-3.027,11.162-9.082v3.311c-0.664,0.605-1.582,1.455-2.754,2.549c-1.172,1.094-2.095,1.948-2.769,2.563
		s-1.514,1.333-2.52,2.153c-1.006,0.82-1.86,1.446-2.563,1.875c-1.797,1.074-3.379,1.611-4.746,1.611
		c-2.325,0-3.486-1.621-3.486-4.863c0-1.777,0.278-3.872,0.835-6.284c0.557-2.412,1.03-4.384,1.421-5.918
		C127.627,28.511,128.057,26.738,128.525,24.727z"/>
	<linearGradient id="SVGID_6_" gradientUnits="userSpaceOnUse" x1="148.9893" y1="53.877" x2="148.9893" y2="0">
		<stop  offset="0" style="stop-color:#D4D0B1"/>
		<stop  offset="1" style="stop-color:#E2BE6F"/>
	</linearGradient>
	<path fill="url(#SVGID_6_)" d="M146.689,40.43c0,1.289,0.341,1.934,1.025,1.934c0.429,0,1.782-1.118,4.058-3.354
		c2.275-2.236,4.087-4.097,5.435-5.581v3.281c-3.848,3.79-6.426,6.23-7.734,7.324c-2.383,1.973-4.424,2.998-6.123,3.076
		c-0.86,0-1.504-0.386-1.934-1.157c-0.43-0.771-0.645-1.762-0.645-2.974c0-1.211,0.546-4.053,1.641-8.525
		c1.094-4.472,1.821-7.178,2.183-8.115c0.361-0.938,0.659-1.592,0.894-1.963c0.234-0.371,0.527-0.664,0.879-0.879
		c0.352-0.215,0.659-0.385,0.923-0.513c0.264-0.127,0.669-0.22,1.216-0.278c0.762-0.059,1.699-0.088,2.813-0.088
		C148.232,32.5,146.689,38.438,146.689,40.43z M151.729,14.824c-1.387,0-2.08-0.703-2.08-2.109c0-0.977,0.366-1.919,1.099-2.827
		s1.597-1.362,2.593-1.362s1.738,0.195,2.227,0.586c0.488,0.391,0.732,0.981,0.732,1.772s-0.464,1.646-1.392,2.563
		C153.979,14.366,152.919,14.824,151.729,14.824z"/>
	<linearGradient id="SVGID_7_" gradientUnits="userSpaceOnUse" x1="167.3291" y1="53.877" x2="167.3291" y2="0">
		<stop  offset="0" style="stop-color:#D4D0B1"/>
		<stop  offset="1" style="stop-color:#E2BE6F"/>
	</linearGradient>
	<path fill="url(#SVGID_7_)" d="M181.728,33.486v3.281c-3.105,3.164-5.854,5.679-8.247,7.544c-2.393,1.865-3.989,2.798-4.79,2.798
		c-1.465,0-2.197-0.82-2.197-2.461s0.366-3.599,1.099-5.874c0.732-2.275,1.465-4.336,2.197-6.182s1.099-3.081,1.099-3.706
		c0-0.625-0.113-1.084-0.337-1.377c-0.225-0.293-0.494-0.439-0.806-0.439c-1.113,0-2.314,0.776-3.604,2.329s-2.442,3.433-3.457,5.64
		c-2.109,4.57-3.497,8.311-4.16,11.221h-5.596c0.02-2.109,0.615-5.605,1.787-10.488c1.172-4.882,2.216-8.486,3.135-10.811
		c0.371-0.938,0.903-1.563,1.597-1.875c0.693-0.312,1.626-0.469,2.798-0.469h1.963c-1.426,4.922-2.48,8.467-3.164,10.635
		c1.308-2.441,3.203-4.922,5.684-7.441c1.211-1.211,2.529-2.207,3.955-2.988c1.425-0.781,2.773-1.172,4.043-1.172
		c1.914,0,2.871,1.143,2.871,3.428c0,1.094-0.688,3.687-2.064,7.778c-1.377,4.092-2.066,6.348-2.066,6.768
		c0,0.42,0.122,0.63,0.366,0.63c0.244,0,0.566-0.132,0.967-0.396c0.4-0.264,1.557-1.308,3.471-3.135
		C180.185,34.897,181.337,33.819,181.728,33.486z"/>
	<linearGradient id="SVGID_8_" gradientUnits="userSpaceOnUse" x1="191.8794" y1="53.877" x2="191.8794" y2="0">
		<stop  offset="0" style="stop-color:#D4D0B1"/>
		<stop  offset="1" style="stop-color:#E2BE6F"/>
	</linearGradient>
	<path fill="url(#SVGID_8_)" d="M206.279,33.486v3.281c-3.105,3.164-5.854,5.679-8.246,7.544c-2.393,1.865-3.99,2.798-4.791,2.798
		c-1.465,0-2.197-0.82-2.197-2.461s0.367-3.599,1.1-5.874c0.732-2.275,1.465-4.336,2.197-6.182s1.098-3.081,1.098-3.706
		c0-0.625-0.112-1.084-0.336-1.377c-0.225-0.293-0.494-0.439-0.807-0.439c-1.113,0-2.314,0.776-3.604,2.329s-2.441,3.433-3.457,5.64
		c-2.109,4.57-3.496,8.311-4.16,11.221h-5.596c0.02-2.109,0.615-5.605,1.787-10.488c1.172-4.882,2.217-8.486,3.135-10.811
		c0.371-0.938,0.904-1.563,1.598-1.875c0.692-0.312,1.625-0.469,2.797-0.469h1.963c-1.426,4.922-2.48,8.467-3.164,10.635
		c1.309-2.441,3.203-4.922,5.684-7.441c1.211-1.211,2.529-2.207,3.955-2.988c1.426-0.781,2.773-1.172,4.043-1.172
		c1.914,0,2.871,1.143,2.871,3.428c0,1.094-0.688,3.687-2.064,7.778c-1.377,4.092-2.066,6.348-2.066,6.768
		c0,0.42,0.122,0.63,0.367,0.63c0.244,0,0.566-0.132,0.967-0.396c0.399-0.264,1.557-1.308,3.471-3.135
		C204.736,34.897,205.888,33.819,206.279,33.486z"/>
	<linearGradient id="SVGID_9_" gradientUnits="userSpaceOnUse" x1="218.2759" y1="53.877" x2="218.2759" y2="0">
		<stop  offset="0" style="stop-color:#D4D0B1"/>
		<stop  offset="1" style="stop-color:#E2BE6F"/>
	</linearGradient>
	<path fill="url(#SVGID_9_)" d="M222.802,22.031c0,0.567-0.215,0.986-0.645,1.26c-3.887,0-6.855,1.113-8.906,3.34
		c-1.914,2.109-2.871,4.478-2.871,7.104c0,2.627,0.582,4.722,1.744,6.284c1.162,1.563,2.582,2.344,4.262,2.344
		s3.301-0.879,4.863-2.637c-1.465-0.918-2.592-2.128-3.383-3.633c-0.791-1.504-1.188-3.032-1.188-4.585s0.469-2.813,1.406-3.779
		s2.295-1.45,4.072-1.45s3.072,0.479,3.883,1.436c0.811,0.957,1.215,2.129,1.215,3.516c0,2.852-0.908,5.381-2.725,7.588
		c0.488,0.195,0.908,0.293,1.26,0.293s0.719-0.083,1.1-0.249c0.381-0.166,0.814-0.458,1.303-0.879
		c0.488-0.42,0.918-0.815,1.289-1.187c0.371-0.371,0.908-0.927,1.611-1.67c0.703-0.742,1.299-1.348,1.787-1.816v3.223
		c-1.621,1.719-2.934,2.94-3.939,3.662c-1.006,0.723-1.992,1.084-2.959,1.084s-1.852-0.136-2.652-0.41
		c-1.504,1.836-3.285,3.335-5.346,4.497s-4.195,1.743-6.402,1.743c-3.164,0-5.42-1.494-6.768-4.482
		c-0.762-1.68-1.143-3.564-1.143-5.654c0-4.746,1.686-8.486,5.055-11.221c3.369-2.734,7.846-4.102,13.432-4.102
		C222.548,21.65,222.763,21.778,222.802,22.031z M224.472,31.787c0-1.797-0.795-2.695-2.387-2.695s-2.389,0.948-2.389,2.842
		c0,0.996,0.27,2.026,0.807,3.091c0.537,1.065,1.264,1.909,2.182,2.534c0.391-0.645,0.787-1.538,1.188-2.681
		S224.472,32.706,224.472,31.787z"/>
	<linearGradient id="SVGID_10_" gradientUnits="userSpaceOnUse" x1="242.8706" y1="53.877" x2="242.8706" y2="0">
		<stop  offset="0" style="stop-color:#D4D0B1"/>
		<stop  offset="1" style="stop-color:#E2BE6F"/>
	</linearGradient>
	<path fill="url(#SVGID_10_)" d="M234.609,47.109c-0.684,0-1.152-0.176-1.406-0.527s-0.449-0.649-0.586-0.894
		c-0.137-0.244-0.244-0.571-0.322-0.981s-0.141-0.762-0.189-1.055s-0.084-0.688-0.104-1.187s-0.029-0.874-0.029-1.128v-1.143
		c0-3.769,0.523-7.939,1.568-12.51s2.383-8.789,4.014-12.656s3.539-7.109,5.727-9.727c2.188-2.617,4.316-3.926,6.387-3.926
		c1.27,0,2.271,0.435,3.004,1.304c0.732,0.869,1.098,2.158,1.098,3.867c0,1.709-0.258,3.623-0.775,5.742
		c-0.518,2.12-1.188,4.063-2.008,5.83c-0.82,1.768-1.729,3.486-2.725,5.156s-1.992,3.14-2.988,4.409
		c-2.031,2.578-3.613,4.395-4.746,5.449l-0.762,0.762c-1.152,3.047-1.729,5.298-1.729,6.753c0,1.455,0.342,2.183,1.025,2.183
		c0.488,0,1.826-1.074,4.014-3.223c2.188-2.148,4.189-4.229,6.006-6.24v3.281c-3.359,3.614-6.137,6.226-8.334,7.837
		S236.503,46.973,234.609,47.109z M249.199,4.746c-1.367,0-2.699,1.904-3.998,5.713s-2.789,9.708-4.469,17.695
		c1.465-1.504,2.842-3.315,4.131-5.435c1.289-2.119,2.324-4.175,3.105-6.167c1.66-4.199,2.49-7.217,2.49-9.053
		C250.458,5.665,250.039,4.746,249.199,4.746z"/>
	<linearGradient id="SVGID_11_" gradientUnits="userSpaceOnUse" x1="259.0718" y1="53.877" x2="259.0718" y2="0">
		<stop  offset="0" style="stop-color:#D4D0B1"/>
		<stop  offset="1" style="stop-color:#E2BE6F"/>
	</linearGradient>
	<path fill="url(#SVGID_11_)" d="M250.81,47.109c-0.684,0-1.152-0.176-1.406-0.527s-0.449-0.649-0.586-0.894
		c-0.137-0.244-0.244-0.571-0.322-0.981s-0.141-0.762-0.189-1.055s-0.084-0.688-0.104-1.187s-0.029-0.874-0.029-1.128v-1.143
		c0-3.769,0.523-7.939,1.568-12.51s2.383-8.789,4.014-12.656s3.539-7.109,5.727-9.727c2.188-2.617,4.316-3.926,6.387-3.926
		c1.27,0,2.271,0.435,3.004,1.304c0.732,0.869,1.098,2.158,1.098,3.867c0,1.709-0.258,3.623-0.775,5.742
		c-0.518,2.12-1.188,4.063-2.008,5.83c-0.82,1.768-1.729,3.486-2.725,5.156s-1.992,3.14-2.988,4.409
		c-2.031,2.578-3.613,4.395-4.746,5.449l-0.762,0.762c-1.152,3.047-1.729,5.298-1.729,6.753c0,1.455,0.342,2.183,1.025,2.183
		c0.488,0,1.826-1.074,4.014-3.223c2.188-2.148,4.189-4.229,6.006-6.24v3.281c-3.359,3.614-6.137,6.226-8.334,7.837
		S252.705,46.973,250.81,47.109z M265.4,4.746c-1.367,0-2.699,1.904-3.998,5.713s-2.789,9.708-4.469,17.695
		c1.465-1.504,2.842-3.315,4.131-5.435c1.289-2.119,2.324-4.175,3.105-6.167c1.66-4.199,2.49-7.217,2.49-9.053
		C266.66,5.665,266.24,4.746,265.4,4.746z"/>
	<linearGradient id="SVGID_12_" gradientUnits="userSpaceOnUse" x1="277.0747" y1="53.877" x2="277.0747" y2="0">
		<stop  offset="0" style="stop-color:#D4D0B1"/>
		<stop  offset="1" style="stop-color:#E2BE6F"/>
	</linearGradient>
	<path fill="url(#SVGID_12_)" d="M266.132,47.109c-2.344,0-3.789-1.65-4.336-4.951c-0.117-0.801-0.176-1.63-0.176-2.49
		c0-2.128,0.527-4.277,1.582-6.445s2.447-4.102,4.176-5.801s3.799-3.086,6.211-4.16c2.412-1.074,4.877-1.611,7.396-1.611
		c1.23,0,2.871,0.322,4.922,0.967c-0.02,0.137-0.215,1.03-0.586,2.681c-0.371,1.651-0.742,3.335-1.113,5.054
		c-1.016,4.707-1.523,7.627-1.523,8.76c0,1.133,0.293,1.699,0.879,1.699c1.289,0,4.277-2.48,8.965-7.441v3.281
		c-2.969,3.066-5.795,5.577-8.48,7.529c-2.686,1.953-4.479,2.93-5.377,2.93c-1.484,0-2.227-1.279-2.227-3.838
		c0-0.839,0.078-1.787,0.234-2.842c-1.406,1.836-3.041,3.409-4.906,4.717S268.027,47.109,266.132,47.109z M267.861,38.027
		c0,2.93,0.957,4.395,2.871,4.395c0.82,0,1.832-0.429,3.033-1.289c1.201-0.859,2.289-1.806,3.266-2.842l3.369-14.414
		c-2.109,0-4.15,0.752-6.123,2.256c-1.973,1.504-3.535,3.35-4.688,5.537C268.437,33.857,267.861,35.977,267.861,38.027z"/>
	<linearGradient id="SVGID_13_" gradientUnits="userSpaceOnUse" x1="305.7856" y1="53.877" x2="305.7856" y2="3.814697e-006">
		<stop  offset="0" style="stop-color:#D4D0B1"/>
		<stop  offset="1" style="stop-color:#E2BE6F"/>
	</linearGradient>
	<path fill="url(#SVGID_13_)" d="M293.437,47.109c-2.285,0-3.428-1.641-3.428-4.922c0-1.113,0.137-2.197,0.41-3.252
		c1.172-4.434,2.793-9.628,4.863-15.586c0.078-0.488,1.66-0.732,4.746-0.732h1.025c0,0.04-0.4,1.318-1.201,3.838
		c-2.402,7.559-3.604,12.041-3.604,13.447s0.654,2.109,1.963,2.109c1.113,0,2.496-0.479,4.146-1.436
		c1.65-0.957,2.611-1.718,2.885-2.285l3.193-12.188c0.43-1.66,1.016-2.676,1.758-3.047c0.566-0.293,1.475-0.439,2.725-0.439h1.992
		c-2.48,8.965-3.945,14.443-4.395,16.436c-0.156,1.484-0.234,2.373-0.234,2.666s0.045,0.494,0.133,0.601
		c0.088,0.107,0.287,0.161,0.6,0.161c0.996,0,4.512-3.018,10.547-9.053v3.281c-0.469,0.43-1.279,1.187-2.432,2.271
		s-2.031,1.904-2.637,2.461s-1.42,1.255-2.445,2.095c-1.025,0.84-1.881,1.475-2.564,1.904c-1.777,1.113-3.232,1.67-4.365,1.67
		c-1.68,0-2.52-1.279-2.52-3.838c0-1.074,0.098-1.982,0.293-2.725C300.38,44.922,296.562,47.109,293.437,47.109z"/>
	<linearGradient id="SVGID_14_" gradientUnits="userSpaceOnUse" x1="328.0659" y1="53.877" x2="328.0659" y2="0">
		<stop  offset="0" style="stop-color:#D4D0B1"/>
		<stop  offset="1" style="stop-color:#E2BE6F"/>
	</linearGradient>
	<path fill="url(#SVGID_14_)" d="M327.978,46.04c-0.664,0.283-1.391,0.532-2.182,0.747c-0.791,0.215-1.582,0.322-2.373,0.322
		s-1.621-0.078-2.49-0.234c-0.869-0.157-1.725-0.41-2.564-0.762c-1.914-0.781-2.871-2.128-2.871-4.043
		c0-0.762,0.283-1.63,0.85-2.607c0.566-0.977,1.188-1.835,1.861-2.578c0.674-0.742,1.469-1.592,2.387-2.549
		c0.918-0.957,1.543-1.641,1.875-2.051c-0.527-1.308-0.791-2.734-0.791-4.277c0-2.285,0.703-4.175,2.109-5.669
		s3.506-2.241,6.299-2.241c1.23,0,1.846,0.342,1.846,1.025c0,1.211-0.521,2.153-1.566,2.827s-2.164,1.011-3.355,1.011
		c0.664,2.012,1.787,3.819,3.369,5.42c0.586,0.625,1.152,1.221,1.699,1.787c1.27,1.289,1.904,2.402,1.904,3.34
		c0,1.446-0.684,3.105-2.051,4.98l8.701-7.119v3.223c-0.234,0.195-0.814,0.703-1.742,1.523s-1.602,1.411-2.021,1.772
		c-0.42,0.362-1.104,0.923-2.051,1.685s-1.709,1.343-2.285,1.743c-0.576,0.4-1.314,0.884-2.213,1.45
		C329.423,45.333,328.642,45.757,327.978,46.04z M323.73,34.57c-0.156,0.176-0.752,0.732-1.787,1.67
		c-2.305,2.051-3.457,3.628-3.457,4.731c0,1.104,0.566,2.032,1.699,2.783c1.133,0.752,2.354,1.128,3.662,1.128
		s2.363-0.22,3.164-0.659s1.201-1,1.201-1.685c0-0.684-0.088-1.299-0.264-1.846c-0.176-0.546-0.453-1.118-0.834-1.714
		c-0.381-0.596-0.713-1.084-0.996-1.465s-0.709-0.908-1.275-1.582S323.906,34.805,323.73,34.57z"/>
</g>
<g>
	<linearGradient id="XMLID_8_" gradientUnits="userSpaceOnUse" x1="130.7344" y1="69.083" x2="130.7344" y2="84.9165">
		<stop  offset="0" style="stop-color:#D4D0B1"/>
		<stop  offset="1" style="stop-color:#E2BE6F"/>
	</linearGradient>
	<linearGradient id="XMLID_9_" gradientUnits="userSpaceOnUse" x1="130.7344" y1="68.083" x2="130.7344" y2="85.9165">
		<stop  offset="0" style="stop-color:#D4D0B1"/>
		<stop  offset="1" style="stop-color:#E2BE6F"/>
	</linearGradient>
	
		<circle id="XMLID_1_" fill="url(#XMLID_8_)" stroke="url(#XMLID_9_)" stroke-width="2" stroke-miterlimit="10" cx="130.734" cy="77" r="7.917"/>
	<linearGradient id="XMLID_10_" gradientUnits="userSpaceOnUse" x1="146.5674" y1="68.083" x2="146.5674" y2="85.9165">
		<stop  offset="0" style="stop-color:#D4D0B1"/>
		<stop  offset="1" style="stop-color:#E2BE6F"/>
	</linearGradient>
	
		<circle id="XMLID_2_" fill="none" stroke="url(#XMLID_10_)" stroke-width="2" stroke-miterlimit="10" cx="146.567" cy="77" r="7.917"/>
	<linearGradient id="XMLID_11_" gradientUnits="userSpaceOnUse" x1="162.4004" y1="68" x2="162.4004" y2="85.8335">
		<stop  offset="0" style="stop-color:#D4D0B1"/>
		<stop  offset="1" style="stop-color:#E2BE6F"/>
	</linearGradient>
	
		<circle id="XMLID_4_" fill="none" stroke="url(#XMLID_11_)" stroke-width="2" stroke-miterlimit="10" cx="162.4" cy="76.917" r="7.917"/>
	<linearGradient id="XMLID_12_" gradientUnits="userSpaceOnUse" x1="178.2339" y1="68" x2="178.2339" y2="85.8335">
		<stop  offset="0" style="stop-color:#D4D0B1"/>
		<stop  offset="1" style="stop-color:#E2BE6F"/>
	</linearGradient>
	
		<circle id="XMLID_3_" fill="none" stroke="url(#XMLID_12_)" stroke-width="2" stroke-miterlimit="10" cx="178.233" cy="76.917" r="7.917"/>
	<linearGradient id="XMLID_13_" gradientUnits="userSpaceOnUse" x1="194.0659" y1="69" x2="194.0659" y2="84.8335">
		<stop  offset="0" style="stop-color:#D4D0B1"/>
		<stop  offset="1" style="stop-color:#E2BE6F"/>
	</linearGradient>
	<linearGradient id="XMLID_14_" gradientUnits="userSpaceOnUse" x1="194.0659" y1="68" x2="194.0659" y2="85.8335">
		<stop  offset="0" style="stop-color:#D4D0B1"/>
		<stop  offset="1" style="stop-color:#E2BE6F"/>
	</linearGradient>
	
		<circle id="XMLID_6_" fill="url(#XMLID_13_)" stroke="url(#XMLID_14_)" stroke-width="2" stroke-miterlimit="10" cx="194.066" cy="76.917" r="7.917"/>
	<linearGradient id="XMLID_15_" gradientUnits="userSpaceOnUse" x1="209.8999" y1="68" x2="209.8999" y2="85.8335">
		<stop  offset="0" style="stop-color:#D4D0B1"/>
		<stop  offset="1" style="stop-color:#E2BE6F"/>
	</linearGradient>
	
		<circle id="XMLID_5_" fill="none" stroke="url(#XMLID_15_)" stroke-width="2" stroke-miterlimit="10" cx="209.899" cy="76.917" r="7.917"/>
</g>
<g>
</g>
<g>
</g>
<g>
</g>
<g>
</g>
<g>
</g>
<g>
</g>
</svg>
